ps01
…
## [1] 40444

1.2

average schooling rate of poor household in progresa and nonprogresa villages for 1997

schooling_1997 <- data %>% 
  filter(data$poor == 'pobre', data$year =='97') %>% 
  group_by(village) %>% 
  mutate(schooling = mean(sc, na.rm=TRUE))
schooling_1997

## # A tibble: 32,696 x 22
## # Groups:   village [505]
##     year   sex indig dist_sec    sc   grc fam_n min_dist dist_cap poor  progresa
##    <int> <int> <int>    <dbl> <int> <int> <int>    <dbl>    <dbl> <chr> <chr>   
##  1    97     0     0     4.47     1     7     7     21.2     21.2 pobre 0       
##  2    97     1     0     4.47     1     6     7     21.2     21.2 pobre 0       
##  3    97     0     0     4.47     1     2     7     21.2     21.2 pobre 0       
##  4    97     0     0     3.15     0     6     6    127.     154.  pobre basal   
##  5    97     1     0     3.37     1     2     5     85.3    106.  pobre basal   
##  6    97     0     0     3.37     1     2     5     85.3    106.  pobre basal   
##  7    97     0     0     3.37    NA     0     5     85.3    106.  pobre basal   
##  8    97     1     1     1.93     1     2     5    128.     333.  pobre basal   
##  9    97     0     1     1.93     1     2     5    128.     333.  pobre basal   
## 10    97     1     1     1.93     1     5    10    128.     333.  pobre basal   
## #  with 32,686 more rows, and 11 more variables: hohedu <int>, hohwag <dbl>,
## #   welfare_index <dbl>, hohsex <int>, hohage <int>, age <int>, village <int>,
## #   folnum <int>, grc97 <int>, sc97 <int>, schooling <dbl>

average schooling rate of poor household in progresa and nonprogresa villages for 1998

schooling_1998 <- data %>% 
  filter(data$poor =="pobre",data$year =="98") %>% 
  group_by(village) %>% 
  mutate(schooling = mean(sc, na.rm = TRUE))
schooling_1998

## # A tibble: 32,696 x 22
## # Groups:   village [505]
##     year   sex indig dist_sec    sc   grc fam_n min_dist dist_cap poor  progresa
##    <int> <int> <int>    <dbl> <int> <int> <int>    <dbl>    <dbl> <chr> <chr>   
##  1    98     0     0     4.47     1     8     7     21.2     21.2 pobre 0       
##  2    98     1     0     4.47     1     7     7     21.2     21.2 pobre 0       
##  3    98     0     0     4.47     1     3     7     21.2     21.2 pobre 0       
##  4    98     0     0     3.15     0     6     6    127.     154.  pobre basal   
##  5    98     1     0     3.37     1     2     5     85.3    106.  pobre basal   
##  6    98     0     0     3.37     1     3     5     85.3    106.  pobre basal   
##  7    98     0     0     3.37     1     1     5     85.3    106.  pobre basal   
##  8    98     1     1     1.93     1     3     5    128.     333.  pobre basal   
##  9    98     0     1     1.93     1     3     5    128.     333.  pobre basal   
## 10    98     1     1     1.93     0     6    10    128.     333.  pobre basal   
## #  with 32,686 more rows, and 11 more variables: hohedu <int>, hohwag <dbl>,
## #   welfare_index <dbl>, hohsex <int>, hohage <int>, age <int>, village <int>,
## #   folnum <int>, grc97 <int>, sc97 <int>, schooling <dbl>
…
